out.vcd
$version Generated by Amber $end
$date Wed Jun 7 18:38:32 2023 $end
$timescale 1ns $end
$scope module TOP $end
$scope module mcu $end
$var wire 32 ! pc[31:0] $end
$var wire 1 " clk $end
$upscope $end
$var wire 1 # led $end
$upscope $end
$enddefinitions $end
$dumpvars
b00000000000000000000000000000000 !
0"
z#
$end
#31
1"
#63
0"
#94
b00000000000000000000000000000001 !
1"
#125
0"
0#
#156
1"
#188
0"
#219
b00000000000000000000000000000010 !
1"
#250
0"
1#
#281
1"
#313
0"
#344
b00000000000000000000000000000011 !
1"
#375
0"
#406
b00000000000000000000000000000100 !
1"
#438
0"
0#
#469
1"
#500
0"
#531
b00000000000000000000000000000001 !
1"
